<svg width="24" height="24" viewBox="0 0 24 24" fill="none" xmlns="http://www.w3.org/2000/svg">
<path d="M16.0001 19.4999H7.50006V18.3599C7.50006 17.7399 7.21006 17.1399 6.71006 16.7699C4.24006 14.9699 2.72006 11.9499 3.05006 8.58989C3.45006 4.42989 6.82006 1.01989 10.9801 0.559893C16.4101 -0.0401065 21.0001 4.19989 21.0001 9.49989C21.0001 12.4899 19.5401 15.1399 17.2901 16.7699C16.7901 17.1399 16.5001 17.7299 16.5001 18.3499V20.4899C16.5001 22.1499 15.1601 23.4899 13.5001 23.4899H7.50006V21.9899" stroke="#AC8EF5" stroke-miterlimit="10"/>
<path d="M13.5501 10.5H12.5001L11.0901 15L13.8201 10H10.1801L12.9101 5L11.5001 9.5H10.4501" stroke="#AC8EF5" stroke-miterlimit="10"/>
</svg>
