<svg width="121" height="30" viewBox="0 0 121 30" fill="none" xmlns="http://www.w3.org/2000/svg">
<g clip-path="url(#clip0_332_8480)">
<path d="M61.6206 3.08129H61.1034C60.5851 3.08129 60.1632 3.50166 60.1632 4.01802V25.0991C60.1632 25.615 60.5851 26.0359 61.1034 26.0359H61.6206C62.1389 26.0359 62.5613 25.615 62.5613 25.0991V4.01802C62.5613 3.50166 62.1389 3.08129 61.6206 3.08129ZM45.6334 5.71401H45.1162C44.5979 5.71401 44.176 6.13439 44.176 6.65075V22.4659C44.176 22.9822 44.5979 23.4026 45.1162 23.4026H45.6334C46.1522 23.4026 46.5741 22.9822 46.5741 22.4659V6.65075C46.5741 6.13439 46.1522 5.71401 45.6334 5.71401ZM53.627 0.663574H53.1103C52.5915 0.663574 52.1696 1.08395 52.1696 1.60085V27.5163C52.1696 28.0327 52.5915 28.453 53.1103 28.453H53.627C54.1458 28.453 54.5677 28.0327 54.5677 27.5163V1.60085C54.5677 1.08395 54.1458 0.663574 53.627 0.663574ZM57.6241 5.27594H57.1069C56.5881 5.27594 56.1661 5.69632 56.1661 6.21267V22.9045C56.1661 23.4208 56.5881 23.8412 57.1069 23.8412H57.6241C58.1423 23.8412 58.5643 23.4208 58.5643 22.9045V6.21267C58.5643 5.69632 58.1423 5.27594 57.6241 5.27594ZM49.6305 3.73974H49.1133C48.5945 3.73974 48.1731 4.16011 48.1731 4.67701V24.4407C48.1731 24.957 48.5945 25.3774 49.1133 25.3774H49.6305C50.1493 25.3774 50.5707 24.957 50.5707 24.4407V4.67701C50.5707 4.16011 50.1493 3.73974 49.6305 3.73974ZM65.6177 9.17141H65.0999C64.5816 9.17141 64.1597 9.59232 64.1597 10.1087V19.0085C64.1597 19.5248 64.5816 19.9452 65.0999 19.9452H65.6177C66.1359 19.9452 66.5579 19.5248 66.5579 19.0085V10.1087C66.5579 9.59232 66.1359 9.17141 65.6177 9.17141ZM41.6369 9.17141H41.1197C40.6014 9.17141 40.1795 9.59232 40.1795 10.1087V19.0085C40.1795 19.5248 40.6014 19.9452 41.1197 19.9452H41.6369C42.1557 19.9452 42.5776 19.5248 42.5776 19.0085V10.1087C42.5776 9.59232 42.1557 9.17141 41.6369 9.17141ZM114.552 12.4634C112.718 11.7232 111.97 11.0807 111.97 10.2459C111.97 9.65788 112.583 9.17911 113.338 9.17911C114.587 9.17911 116.104 10.1857 116.603 10.5162C116.693 10.5768 116.758 10.6189 116.765 10.6205C116.881 10.7096 117.031 10.7417 117.201 10.7116C117.463 10.6664 117.747 10.4768 117.889 10.254L119.16 8.34086C119.304 8.09105 119.353 7.52578 118.958 7.29798C117.992 6.59217 116.003 5.40759 113.536 5.40759C110.593 5.40759 107.614 7.16284 107.614 10.5178C107.614 13.5734 110.297 15.2715 112.547 16.158C114.207 16.8144 114.98 17.5504 114.98 18.4743C114.98 19.2334 114.356 19.7635 113.462 19.7635C112.824 19.7635 111.729 19.5431 110.138 18.4948C110.077 18.4542 110.044 18.4342 110.052 18.44C109.893 18.3268 109.633 18.2813 109.404 18.3276C109.198 18.3689 109.035 18.4786 108.929 18.6508L107.763 20.7014C107.501 21.1578 107.647 21.3547 107.919 21.625C108.247 21.9524 110.064 23.5841 113.636 23.5841C117.421 23.5841 119.682 20.8856 119.682 18.2762C119.682 14.4958 115.82 12.9661 114.552 12.4634ZM103.012 5.53114H99.961C99.5944 5.53114 99.2964 5.82844 99.2964 6.19371V16.2009C99.2964 17.8658 98.0466 19.1214 96.3898 19.1214C94.761 19.1214 93.5333 17.8658 93.5333 16.2009V6.19371C93.5333 5.82844 93.2349 5.53114 92.8683 5.53114H89.8176C89.4633 5.53114 89.1525 5.8408 89.1525 6.19371V16.399C89.1525 20.2929 92.399 23.4609 96.3898 23.4609C100.407 23.4609 103.676 20.2929 103.676 16.399V6.19371C103.676 5.8408 103.366 5.53114 103.012 5.53114ZM81.3216 11.2587C81.3216 10.3455 80.5473 9.5741 79.6303 9.5741H76.1537V13.0425H79.6303C80.5314 13.0425 81.3216 12.2089 81.3216 11.2587ZM81.961 16.2472L85.2574 22.3362C85.3772 22.5582 85.376 22.8219 85.2547 23.0242C85.1353 23.2231 84.9202 23.3374 84.6652 23.3374H81.3665C81.0883 23.3374 80.8759 23.1663 80.7961 23.008L77.5516 16.5666H76.1537V22.6748C76.1537 23.0277 75.8429 23.3374 75.4887 23.3374H72.5376C72.1706 23.3374 71.8726 23.0401 71.8726 22.6748V6.31687C71.8726 5.95161 72.1706 5.6547 72.5376 5.6547H79.9532C83.0407 5.6547 85.5531 8.13545 85.5531 11.1849C85.5531 13.3572 84.1828 15.2793 81.961 16.2472ZM34.2365 5.6547H31.2854C30.9184 5.6547 30.6203 5.95161 30.6203 6.31687V12.3506H23.9148V6.31687C23.9148 5.95161 23.6168 5.6547 23.2498 5.6547H20.2986C19.9444 5.6547 19.6336 5.96397 19.6336 6.31687V22.6748C19.6336 23.0277 19.9444 23.3374 20.2986 23.3374H23.2498C23.6168 23.3374 23.9148 23.0401 23.9148 22.6748V16.3692H30.6203V22.6748C30.6203 23.0401 30.9184 23.3374 31.2854 23.3374H34.2365C34.5907 23.3374 34.9015 23.0277 34.9015 22.6748V6.31687C34.9015 5.96397 34.5907 5.6547 34.2365 5.6547ZM5.01763 14.4217C5.01763 17.1264 7.07856 19.2446 9.70955 19.2446C10.8799 19.2446 12.0751 18.8187 12.9064 18.1056C13.1664 17.8832 13.6125 17.9044 13.8248 18.1504L15.7532 20.1948C15.9939 20.4346 15.9822 20.874 15.7241 21.1311C14.0639 22.7366 11.9332 23.5841 9.56074 23.5841C4.51732 23.5841 0.414062 19.5184 0.414062 14.5209C0.414062 9.49572 4.51732 5.40759 9.56074 5.40759C12.0142 5.40759 13.9054 6.13193 15.6931 7.75591C15.8377 7.88371 15.9214 8.05514 15.9268 8.237C15.9319 8.4177 15.8602 8.59183 15.7238 8.72697L13.7927 10.7255C13.6694 10.8486 13.5105 10.9147 13.3427 10.9147H13.3423C13.1745 10.9147 13.016 10.8483 12.8959 10.7282C12.0375 9.96639 10.864 9.52468 9.68475 9.52468C7.06771 9.52468 5.01763 11.6757 5.01763 14.4217Z" fill="#171321"/>
</g>
<defs>
<clipPath id="clip0_332_8480">
<rect width="120" height="28.6726" fill="white" transform="translate(0.414062 0.663574)"/>
</clipPath>
</defs>
</svg>
